{"name":"getUsers","id":"SerenityInitialTests:getUsers","testCaseName":"SerenityInitialTests","testSteps":[{"number":1,"description":"Julian the trainer get users","duration":3723,"startTime":"2021-01-17T22:12:04.597016400-05:00[America/Bogota]","result":"SUCCESS","precondition":false,"level":0,"children":[{"number":2,"description":"Julian the trainer executes a GET on the resource /users?page\u003d2","duration":3599,"startTime":"2021-01-17T22:12:04.716179700-05:00[America/Bogota]","result":"SUCCESS","precondition":false,"level":1,"children":[{"number":3,"description":"GET http://localhost:5000/api/users?page\u003d2\r","duration":0,"startTime":"2021-01-17T22:12:08.311615300-05:00[America/Bogota]","result":"SUCCESS","restQuery":{"method":"GET","path":"http://localhost:5000/api/users?page\u003d2\r","content":"\r","contentType":"application/json","requestHeaders":"header1\u003dvalue1\r\n\t\t\t\tAccept\u003d*/*\r\n\t\t\t\tContent-Type\u003dapplication/json; charset\u003dUTF-8\r","requestCookies":"\r","responseHeaders":"X-Powered-By: Express\r\nAccess-Control-Allow-Origin: *\r\nContent-Type: application/json; charset\u003dutf-8\r\nContent-Length: 540\r\nETag: W/\"21c-V3l8h04l5/8zLV+i3u8GJo8G3Y8\"\r\nDate: Mon, 18 Jan 2021 03:12:08 GMT\r\nConnection: keep-alive\r\nKeep-Alive: timeout\u003d5\r","responseCookies":"\r","responseBody":"{\n    \"page\": 2,\n    \"per_page\": 3,\n    \"total\": 12,\n    \"total_pages\": 4,\n    \"data\": [\n        {\n            \"id\": 4,\n            \"email\": \"eve.holt@reqres.in\",\n            \"first_name\": \"Eve\",\n            \"last_name\": \"Holt\",\n            \"avatar\": \"https://s3.amazonaws.com/uifaces/faces/twitter/marcoramires/128.jpg\"\n        },\n        {\n            \"id\": 5,\n            \"email\": \"charles.morris@reqres.in\",\n            \"first_name\": \"Charles\",\n            \"last_name\": \"Morris\",\n            \"avatar\": \"https://s3.amazonaws.com/uifaces/faces/twitter/stephenmoon/128.jpg\"\n        },\n        {\n            \"id\": 6,\n            \"email\": \"tracey.ramos@reqres.in\",\n            \"first_name\": \"Tracey\",\n            \"last_name\": \"Ramos\",\n            \"avatar\": \"https://s3.amazonaws.com/uifaces/faces/twitter/bigmancho/128.jpg\"\n        }\n    ]\n}","statusCode":200},"precondition":false,"level":2}]}]}],"userStory":{"id":"SerenityInitialTests","storyName":"Serenity initial tests","storyClassName":"SerenityInitialTests","path":"","type":"story"},"featureTag":{"name":"Serenity initial tests","type":"story","displayName":"Serenity initial tests"},"title":"Get users","tags":[{"name":"Serenity initial tests","type":"story","displayName":"Serenity initial tests"}],"startTime":"2021-01-17T22:12:04.135230400-05:00[America/Bogota]","duration":4250,"projectKey":"","isManualTestingUpToDate":false,"manual":false,"testSource":"JUnit","actors":[{"name":"Julian the trainer","can":["call an API at http://localhost:5000/api"]}],"order":0,"result":"SUCCESS"}