{"name":"initialTest","id":"SerenityBddTests:initialTest","testCaseName":"SerenityBddTests","testSteps":[{"number":1,"description":"Julian the trainer get users","duration":3919,"startTime":"2021-01-17T23:06:05.924714200-05:00[America/Bogota]","result":"SUCCESS","precondition":false,"level":0,"children":[{"number":2,"description":"Julian the trainer executes a GET on the resource /users?page\u003d2","duration":3833,"startTime":"2021-01-17T23:06:06.004446500-05:00[America/Bogota]","result":"SUCCESS","precondition":false,"level":1,"children":[{"number":3,"description":"GET http://localhost:5000/api/users?page\u003d2\r","duration":4,"startTime":"2021-01-17T23:06:09.831033800-05:00[America/Bogota]","result":"SUCCESS","restQuery":{"method":"GET","path":"http://localhost:5000/api/users?page\u003d2\r","content":"\r","contentType":"application/json","requestHeaders":"header1\u003dvalue1\r\n\t\t\t\tAccept\u003d*/*\r\n\t\t\t\tContent-Type\u003dapplication/json; charset\u003dUTF-8\r","requestCookies":"\r","responseHeaders":"X-Powered-By: Express\r\nAccess-Control-Allow-Origin: *\r\nContent-Type: application/json; charset\u003dutf-8\r\nContent-Length: 540\r\nETag: W/\"21c-V3l8h04l5/8zLV+i3u8GJo8G3Y8\"\r\nDate: Mon, 18 Jan 2021 04:06:09 GMT\r\nConnection: keep-alive\r\nKeep-Alive: timeout\u003d5\r","responseCookies":"\r","responseBody":"{\n    \"page\": 2,\n    \"per_page\": 3,\n    \"total\": 12,\n    \"total_pages\": 4,\n    \"data\": [\n        {\n            \"id\": 4,\n            \"email\": \"eve.holt@reqres.in\",\n            \"first_name\": \"Eve\",\n            \"last_name\": \"Holt\",\n            \"avatar\": \"https://s3.amazonaws.com/uifaces/faces/twitter/marcoramires/128.jpg\"\n        },\n        {\n            \"id\": 5,\n            \"email\": \"charles.morris@reqres.in\",\n            \"first_name\": \"Charles\",\n            \"last_name\": \"Morris\",\n            \"avatar\": \"https://s3.amazonaws.com/uifaces/faces/twitter/stephenmoon/128.jpg\"\n        },\n        {\n            \"id\": 6,\n            \"email\": \"tracey.ramos@reqres.in\",\n            \"first_name\": \"Tracey\",\n            \"last_name\": \"Ramos\",\n            \"avatar\": \"https://s3.amazonaws.com/uifaces/faces/twitter/bigmancho/128.jpg\"\n        }\n    ]\n}","statusCode":200},"precondition":false,"level":2}]}]},{"number":4,"description":"Then el codigo de respuesta should be (200)","duration":32,"startTime":"2021-01-17T23:06:09.952151300-05:00[America/Bogota]","result":"SUCCESS","precondition":false,"level":0}],"userStory":{"id":"SerenityBddTests","storyName":"Serenity bdd tests","storyClassName":"SerenityBddTests","path":"","type":"story"},"featureTag":{"name":"Serenity bdd tests","type":"story","displayName":"Serenity bdd tests"},"title":"Initial test","tags":[{"name":"Serenity bdd tests","type":"story","displayName":"Serenity bdd tests"}],"startTime":"2021-01-17T23:06:05.523225300-05:00[America/Bogota]","duration":4462,"projectKey":"","isManualTestingUpToDate":false,"manual":false,"testSource":"JUnit","actors":[{"name":"Julian the trainer","can":["call an API at http://localhost:5000/api"]}],"order":0,"result":"SUCCESS"}